[
  {
    "start": [
      0,
      16,
      8
    ],
    "end": [
      0,
      22,
      8
    ],
    "name": "捡垃圾周",
    "eff": "获得捡垃圾概率提升的增益"
  },
  {
    "start": [
      3,
      5,
      20
    ],
    "end": [
      3,
      25,
      20
    ],
    "name": "复活节狩猎",
    "eff": "复活节彩蛋会随机出现，集齐10个可兑换金蛋和一个独特的头像框(章)。"
  },
  {
    "start": [
      5,
      20,
      20
    ],
    "end": [
      5,
      29,
      20
    ],
    "name": "狗牌",
    "eff": "击败其他玩家以获得狗牌，小心保护你的狗牌。"
  },
  {
    "start": [
      6,
      5,
      20
    ],
    "end": [
      6,
      25,
      20
    ],
    "name": "托恩先生和托恩女士",
    "eff": "上传你的真实图片，然后拿章"
  },
  {
    "start": [
      8,
      5,
      20
    ],
    "end": [
      8,
      23,
      20
    ],
    "name": "大逃杀",
    "eff": "加入特定队伍后，攻击其他队伍玩家，存活下来的3个队伍可以拿章"
  },
  {
    "start": [
      9,
      25,
      20
    ],
    "end": [
      10,
      1,
      20
    ],
    "name": "不给糖就捣蛋",
    "eff": "买篮子之后攻击其他玩家后会随机掉落糖果，可用于兑换许多高价值物品"
  },
  {
    "start": [
      11,
      19,
      20
    ],
    "end": [
      11,
      31,
      20
    ],
    "name": "圣诞小镇",
    "eff": "在小镇中闲逛来获取随机掉落的物品"
  }
]